-- Merging decision tree log ---
manifest
ADDED from C:\Users\tanush.lonkar\FSPv2.01\app\src\main\AndroidManifest.xml:2:1-152:12
INJECTED from C:\Users\tanush.lonkar\FSPv2.01\app\src\main\AndroidManifest.xml:2:1-152:12
INJECTED from C:\Users\tanush.lonkar\FSPv2.01\app\src\main\AndroidManifest.xml:2:1-152:12
INJECTED from C:\Users\tanush.lonkar\FSPv2.01\app\src\main\AndroidManifest.xml:2:1-152:12
MERGED from [androidx.appcompat:appcompat:1.0.0] C:\Users\tanush.lonkar\.gradle\caches\transforms-2\files-2.1\2c6c92180058c66e00493c649cc15d98\appcompat-1.0.0\AndroidManifest.xml:17:1-22:12
MERGED from [androidx.fragment:fragment:1.0.0] C:\Users\tanush.lonkar\.gradle\caches\transforms-2\files-2.1\25bfa9abbe57efa7109f3ed8175af34b\fragment-1.0.0\AndroidManifest.xml:17:1-22:12
MERGED from [androidx.vectordrawable:vectordrawable-animated:1.0.0] C:\Users\tanush.lonkar\.gradle\caches\transforms-2\files-2.1\91a2e0650e476867729e44e6c1acc534\vectordrawable-animated-1.0.0\AndroidManifest.xml:17:1-22:12
MERGED from [androidx.legacy:legacy-support-core-ui:1.0.0] C:\Users\tanush.lonkar\.gradle\caches\transforms-2\files-2.1\67e3a22614326cadf216274f01d6d423\legacy-support-core-ui-1.0.0\AndroidManifest.xml:17:1-22:12
MERGED from [androidx.legacy:legacy-support-core-utils:1.0.0] C:\Users\tanush.lonkar\.gradle\caches\transforms-2\files-2.1\984e9edaa0792ad5f44429be517dd8ee\legacy-support-core-utils-1.0.0\AndroidManifest.xml:17:1-22:12
MERGED from [androidx.vectordrawable:vectordrawable:1.0.0] C:\Users\tanush.lonkar\.gradle\caches\transforms-2\files-2.1\e9a5a586c1d50b6fc9a947704548d1bc\vectordrawable-1.0.0\AndroidManifest.xml:17:1-22:12
MERGED from [androidx.loader:loader:1.0.0] C:\Users\tanush.lonkar\.gradle\caches\transforms-2\files-2.1\de3b4aff63e255359d6d83ac6fbdaff5\loader-1.0.0\AndroidManifest.xml:17:1-22:12
MERGED from [androidx.viewpager:viewpager:1.0.0] C:\Users\tanush.lonkar\.gradle\caches\transforms-2\files-2.1\7ae8c1d65b7331eeb350edf91287a16c\viewpager-1.0.0\AndroidManifest.xml:17:1-22:12
MERGED from [androidx.coordinatorlayout:coordinatorlayout:1.0.0] C:\Users\tanush.lonkar\.gradle\caches\transforms-2\files-2.1\cbfe81a657ef2afb513a6ca64388f844\coordinatorlayout-1.0.0\AndroidManifest.xml:17:1-22:12
MERGED from [androidx.drawerlayout:drawerlayout:1.0.0] C:\Users\tanush.lonkar\.gradle\caches\transforms-2\files-2.1\3d66247cb3e229dc7753f5f4d3b35b4b\drawerlayout-1.0.0\AndroidManifest.xml:17:1-22:12
MERGED from [androidx.slidingpanelayout:slidingpanelayout:1.0.0] C:\Users\tanush.lonkar\.gradle\caches\transforms-2\files-2.1\985ff358bb91108c25d3fd24361b35b6\slidingpanelayout-1.0.0\AndroidManifest.xml:17:1-22:12
MERGED from [androidx.customview:customview:1.0.0] C:\Users\tanush.lonkar\.gradle\caches\transforms-2\files-2.1\2dfde23a071269bfc073d57af77f7873\customview-1.0.0\AndroidManifest.xml:17:1-22:12
MERGED from [androidx.swiperefreshlayout:swiperefreshlayout:1.0.0] C:\Users\tanush.lonkar\.gradle\caches\transforms-2\files-2.1\9b9140e118d7f4f83e504277c0661cb2\swiperefreshlayout-1.0.0\AndroidManifest.xml:17:1-22:12
MERGED from [androidx.asynclayoutinflater:asynclayoutinflater:1.0.0] C:\Users\tanush.lonkar\.gradle\caches\transforms-2\files-2.1\7b3b7b721ad53547c0e35001526b3ae3\asynclayoutinflater-1.0.0\AndroidManifest.xml:17:1-22:12
MERGED from [androidx.core:core:1.0.0] C:\Users\tanush.lonkar\.gradle\caches\transforms-2\files-2.1\4de34232979cbe134bd28b81339a3afe\core-1.0.0\AndroidManifest.xml:17:1-24:12
MERGED from [androidx.versionedparcelable:versionedparcelable:1.0.0] C:\Users\tanush.lonkar\.gradle\caches\transforms-2\files-2.1\144fdb6eac090fb35b1d84279c68b489\versionedparcelable-1.0.0\AndroidManifest.xml:17:1-25:12
MERGED from [androidx.cursoradapter:cursoradapter:1.0.0] C:\Users\tanush.lonkar\.gradle\caches\transforms-2\files-2.1\fb37b7f790edcc9d7fe6d3e5314b8c56\cursoradapter-1.0.0\AndroidManifest.xml:17:1-22:12
MERGED from [androidx.lifecycle:lifecycle-runtime:2.0.0] C:\Users\tanush.lonkar\.gradle\caches\transforms-2\files-2.1\9403b198b8afe4b102d07c4886ca21c9\lifecycle-runtime-2.0.0\AndroidManifest.xml:17:1-22:12
MERGED from [androidx.documentfile:documentfile:1.0.0] C:\Users\tanush.lonkar\.gradle\caches\transforms-2\files-2.1\8506ddbc1ed30380944ad7f0369e4760\documentfile-1.0.0\AndroidManifest.xml:17:1-22:12
MERGED from [androidx.localbroadcastmanager:localbroadcastmanager:1.0.0] C:\Users\tanush.lonkar\.gradle\caches\transforms-2\files-2.1\35d6382087ac1999db47004e3bf24934\localbroadcastmanager-1.0.0\AndroidManifest.xml:17:1-22:12
MERGED from [androidx.print:print:1.0.0] C:\Users\tanush.lonkar\.gradle\caches\transforms-2\files-2.1\8893b90c6f2a61edd1acfa898cb4cde1\print-1.0.0\AndroidManifest.xml:17:1-22:12
MERGED from [androidx.lifecycle:lifecycle-viewmodel:2.0.0] C:\Users\tanush.lonkar\.gradle\caches\transforms-2\files-2.1\072b344381f0227679ab9ff288809b6a\lifecycle-viewmodel-2.0.0\AndroidManifest.xml:17:1-22:12
MERGED from [androidx.lifecycle:lifecycle-livedata:2.0.0] C:\Users\tanush.lonkar\.gradle\caches\transforms-2\files-2.1\e7284bace20bec096294b5474e153fbf\lifecycle-livedata-2.0.0\AndroidManifest.xml:17:1-22:12
MERGED from [androidx.lifecycle:lifecycle-livedata-core:2.0.0] C:\Users\tanush.lonkar\.gradle\caches\transforms-2\files-2.1\c073c929da6ad4e112abaac7d3212747\lifecycle-livedata-core-2.0.0\AndroidManifest.xml:17:1-22:12
MERGED from [androidx.arch.core:core-runtime:2.0.0] C:\Users\tanush.lonkar\.gradle\caches\transforms-2\files-2.1\e72949b043b8df7a6068dab5e7cd21f2\core-runtime-2.0.0\AndroidManifest.xml:17:1-22:12
MERGED from [androidx.interpolator:interpolator:1.0.0] C:\Users\tanush.lonkar\.gradle\caches\transforms-2\files-2.1\2d1f640c1b4beb33089ff5c91bbd7f31\interpolator-1.0.0\AndroidManifest.xml:17:1-22:12
INJECTED from C:\Users\tanush.lonkar\FSPv2.01\app\src\main\AndroidManifest.xml:2:1-152:12
INJECTED from C:\Users\tanush.lonkar\FSPv2.01\app\src\main\AndroidManifest.xml:2:1-152:12
INJECTED from C:\Users\tanush.lonkar\FSPv2.01\app\src\main\AndroidManifest.xml:2:1-152:12
	package
		ADDED from C:\Users\tanush.lonkar\FSPv2.01\app\src\main\AndroidManifest.xml:3:5-29
		INJECTED from C:\Users\tanush.lonkar\FSPv2.01\app\src\main\AndroidManifest.xml
		INJECTED from C:\Users\tanush.lonkar\FSPv2.01\app\src\main\AndroidManifest.xml
	android:versionName
		ADDED from C:\Users\tanush.lonkar\FSPv2.01\app\src\main\AndroidManifest.xml:5:5-31
		INJECTED from C:\Users\tanush.lonkar\FSPv2.01\app\src\main\AndroidManifest.xml
		INJECTED from C:\Users\tanush.lonkar\FSPv2.01\app\src\main\AndroidManifest.xml
	xmlns:android
		ADDED from C:\Users\tanush.lonkar\FSPv2.01\app\src\main\AndroidManifest.xml:2:11-69
	android:versionCode
		ADDED from C:\Users\tanush.lonkar\FSPv2.01\app\src\main\AndroidManifest.xml:4:5-28
		INJECTED from C:\Users\tanush.lonkar\FSPv2.01\app\src\main\AndroidManifest.xml
		INJECTED from C:\Users\tanush.lonkar\FSPv2.01\app\src\main\AndroidManifest.xml
uses-permission#android.permission.ACCESS_FINE_LOCATION
ADDED from C:\Users\tanush.lonkar\FSPv2.01\app\src\main\AndroidManifest.xml:11:5-79
	android:name
		ADDED from C:\Users\tanush.lonkar\FSPv2.01\app\src\main\AndroidManifest.xml:11:22-76
uses-permission#android.permission.WRITE_EXTERNAL_STORAGE
ADDED from C:\Users\tanush.lonkar\FSPv2.01\app\src\main\AndroidManifest.xml:12:5-81
	android:name
		ADDED from C:\Users\tanush.lonkar\FSPv2.01\app\src\main\AndroidManifest.xml:12:22-78
uses-permission#android.permission.INTERNET
ADDED from C:\Users\tanush.lonkar\FSPv2.01\app\src\main\AndroidManifest.xml:13:5-67
	android:name
		ADDED from C:\Users\tanush.lonkar\FSPv2.01\app\src\main\AndroidManifest.xml:13:22-64
uses-permission#android.permission.ACCESS_NETWORK_STATE
ADDED from C:\Users\tanush.lonkar\FSPv2.01\app\src\main\AndroidManifest.xml:14:5-79
	android:name
		ADDED from C:\Users\tanush.lonkar\FSPv2.01\app\src\main\AndroidManifest.xml:14:22-76
uses-permission#android.permission.READ_PHONE_STATE
ADDED from C:\Users\tanush.lonkar\FSPv2.01\app\src\main\AndroidManifest.xml:15:5-75
	android:name
		ADDED from C:\Users\tanush.lonkar\FSPv2.01\app\src\main\AndroidManifest.xml:15:22-72
application
ADDED from C:\Users\tanush.lonkar\FSPv2.01\app\src\main\AndroidManifest.xml:18:5-150:19
MERGED from [androidx.core:core:1.0.0] C:\Users\tanush.lonkar\.gradle\caches\transforms-2\files-2.1\4de34232979cbe134bd28b81339a3afe\core-1.0.0\AndroidManifest.xml:22:5-89
MERGED from [androidx.core:core:1.0.0] C:\Users\tanush.lonkar\.gradle\caches\transforms-2\files-2.1\4de34232979cbe134bd28b81339a3afe\core-1.0.0\AndroidManifest.xml:22:5-89
MERGED from [androidx.versionedparcelable:versionedparcelable:1.0.0] C:\Users\tanush.lonkar\.gradle\caches\transforms-2\files-2.1\144fdb6eac090fb35b1d84279c68b489\versionedparcelable-1.0.0\AndroidManifest.xml:22:5-23:19
MERGED from [androidx.versionedparcelable:versionedparcelable:1.0.0] C:\Users\tanush.lonkar\.gradle\caches\transforms-2\files-2.1\144fdb6eac090fb35b1d84279c68b489\versionedparcelable-1.0.0\AndroidManifest.xml:22:5-23:19
	android:appComponentFactory
		ADDED from [androidx.core:core:1.0.0] C:\Users\tanush.lonkar\.gradle\caches\transforms-2\files-2.1\4de34232979cbe134bd28b81339a3afe\core-1.0.0\AndroidManifest.xml:22:18-86
	android:label
		ADDED from C:\Users\tanush.lonkar\FSPv2.01\app\src\main\AndroidManifest.xml:21:9-41
	android:icon
		ADDED from C:\Users\tanush.lonkar\FSPv2.01\app\src\main\AndroidManifest.xml:20:9-45
	android:theme
		ADDED from C:\Users\tanush.lonkar\FSPv2.01\app\src\main\AndroidManifest.xml:22:9-48
	android:usesCleartextTraffic
		ADDED from C:\Users\tanush.lonkar\FSPv2.01\app\src\main\AndroidManifest.xml:19:9-44
activity#com.marico.fsp.activity.MainMenuActivity
ADDED from C:\Users\tanush.lonkar\FSPv2.01\app\src\main\AndroidManifest.xml:23:9-26:20
	android:screenOrientation
		ADDED from C:\Users\tanush.lonkar\FSPv2.01\app\src\main\AndroidManifest.xml:25:13-49
	android:name
		ADDED from C:\Users\tanush.lonkar\FSPv2.01\app\src\main\AndroidManifest.xml:24:13-68
activity#com.marico.fsp.activity.SplashScreenActivity
ADDED from C:\Users\tanush.lonkar\FSPv2.01\app\src\main\AndroidManifest.xml:27:9-36:20
	android:screenOrientation
		ADDED from C:\Users\tanush.lonkar\FSPv2.01\app\src\main\AndroidManifest.xml:29:13-49
	android:windowSoftInputMode
		ADDED from C:\Users\tanush.lonkar\FSPv2.01\app\src\main\AndroidManifest.xml:30:13-52
	android:name
		ADDED from C:\Users\tanush.lonkar\FSPv2.01\app\src\main\AndroidManifest.xml:28:13-72
intent-filter#action:name:android.intent.action.MAIN+category:name:android.intent.category.LAUNCHER
ADDED from C:\Users\tanush.lonkar\FSPv2.01\app\src\main\AndroidManifest.xml:31:13-35:29
action#android.intent.action.MAIN
ADDED from C:\Users\tanush.lonkar\FSPv2.01\app\src\main\AndroidManifest.xml:32:17-69
	android:name
		ADDED from C:\Users\tanush.lonkar\FSPv2.01\app\src\main\AndroidManifest.xml:32:25-66
category#android.intent.category.LAUNCHER
ADDED from C:\Users\tanush.lonkar\FSPv2.01\app\src\main\AndroidManifest.xml:34:17-77
	android:name
		ADDED from C:\Users\tanush.lonkar\FSPv2.01\app\src\main\AndroidManifest.xml:34:27-74
activity#com.marico.fsp.activity.LoginActivity
ADDED from C:\Users\tanush.lonkar\FSPv2.01\app\src\main\AndroidManifest.xml:37:9-41:20
	android:screenOrientation
		ADDED from C:\Users\tanush.lonkar\FSPv2.01\app\src\main\AndroidManifest.xml:39:13-49
	android:windowSoftInputMode
		ADDED from C:\Users\tanush.lonkar\FSPv2.01\app\src\main\AndroidManifest.xml:40:13-52
	android:name
		ADDED from C:\Users\tanush.lonkar\FSPv2.01\app\src\main\AndroidManifest.xml:38:13-65
activity#com.marico.fsp.activity.DownloadActivity
ADDED from C:\Users\tanush.lonkar\FSPv2.01\app\src\main\AndroidManifest.xml:42:9-46:20
	android:screenOrientation
		ADDED from C:\Users\tanush.lonkar\FSPv2.01\app\src\main\AndroidManifest.xml:44:13-49
	android:windowSoftInputMode
		ADDED from C:\Users\tanush.lonkar\FSPv2.01\app\src\main\AndroidManifest.xml:45:13-52
	android:name
		ADDED from C:\Users\tanush.lonkar\FSPv2.01\app\src\main\AndroidManifest.xml:43:13-68
activity#com.marico.fsp.activity.UploadActivity
ADDED from C:\Users\tanush.lonkar\FSPv2.01\app\src\main\AndroidManifest.xml:47:9-49:52
	android:screenOrientation
		ADDED from C:\Users\tanush.lonkar\FSPv2.01\app\src\main\AndroidManifest.xml:49:13-49
	android:name
		ADDED from C:\Users\tanush.lonkar\FSPv2.01\app\src\main\AndroidManifest.xml:48:13-66
activity#com.marico.fsp.activity.InstallApkActivity
ADDED from C:\Users\tanush.lonkar\FSPv2.01\app\src\main\AndroidManifest.xml:50:9-52:52
	android:screenOrientation
		ADDED from C:\Users\tanush.lonkar\FSPv2.01\app\src\main\AndroidManifest.xml:52:13-49
	android:name
		ADDED from C:\Users\tanush.lonkar\FSPv2.01\app\src\main\AndroidManifest.xml:51:13-70
activity#com.marico.fsp.activity.ServerSettingsActivity
ADDED from C:\Users\tanush.lonkar\FSPv2.01\app\src\main\AndroidManifest.xml:53:9-55:52
	android:screenOrientation
		ADDED from C:\Users\tanush.lonkar\FSPv2.01\app\src\main\AndroidManifest.xml:55:13-49
	android:name
		ADDED from C:\Users\tanush.lonkar\FSPv2.01\app\src\main\AndroidManifest.xml:54:13-74
activity#com.marico.fsp.activity.SettingsActivity
ADDED from C:\Users\tanush.lonkar\FSPv2.01\app\src\main\AndroidManifest.xml:56:9-58:52
	android:screenOrientation
		ADDED from C:\Users\tanush.lonkar\FSPv2.01\app\src\main\AndroidManifest.xml:58:13-49
	android:name
		ADDED from C:\Users\tanush.lonkar\FSPv2.01\app\src\main\AndroidManifest.xml:57:13-68
activity#com.marico.fsp.activity.RouteDownloadActivity
ADDED from C:\Users\tanush.lonkar\FSPv2.01\app\src\main\AndroidManifest.xml:59:9-61:52
	android:screenOrientation
		ADDED from C:\Users\tanush.lonkar\FSPv2.01\app\src\main\AndroidManifest.xml:61:13-49
	android:name
		ADDED from C:\Users\tanush.lonkar\FSPv2.01\app\src\main\AndroidManifest.xml:60:13-73
activity#com.marico.fsp.activity.FarmerInfoActivity
ADDED from C:\Users\tanush.lonkar\FSPv2.01\app\src\main\AndroidManifest.xml:62:9-64:52
	android:screenOrientation
		ADDED from C:\Users\tanush.lonkar\FSPv2.01\app\src\main\AndroidManifest.xml:64:13-49
	android:name
		ADDED from C:\Users\tanush.lonkar\FSPv2.01\app\src\main\AndroidManifest.xml:63:13-70
activity#com.marico.fsp.activity.FarmerSelectionActivity
ADDED from C:\Users\tanush.lonkar\FSPv2.01\app\src\main\AndroidManifest.xml:65:9-67:52
	android:screenOrientation
		ADDED from C:\Users\tanush.lonkar\FSPv2.01\app\src\main\AndroidManifest.xml:67:13-49
	android:name
		ADDED from C:\Users\tanush.lonkar\FSPv2.01\app\src\main\AndroidManifest.xml:66:13-75
activity#com.marico.fsp.activity.UserReportActivity
ADDED from C:\Users\tanush.lonkar\FSPv2.01\app\src\main\AndroidManifest.xml:68:9-70:52
	android:screenOrientation
		ADDED from C:\Users\tanush.lonkar\FSPv2.01\app\src\main\AndroidManifest.xml:70:13-49
	android:name
		ADDED from C:\Users\tanush.lonkar\FSPv2.01\app\src\main\AndroidManifest.xml:69:13-70
activity#com.marico.fsp.activity.FSPEntryActivity
ADDED from C:\Users\tanush.lonkar\FSPv2.01\app\src\main\AndroidManifest.xml:71:9-74:55
	android:screenOrientation
		ADDED from C:\Users\tanush.lonkar\FSPv2.01\app\src\main\AndroidManifest.xml:73:13-49
	android:windowSoftInputMode
		ADDED from C:\Users\tanush.lonkar\FSPv2.01\app\src\main\AndroidManifest.xml:74:13-52
	android:name
		ADDED from C:\Users\tanush.lonkar\FSPv2.01\app\src\main\AndroidManifest.xml:72:13-68
activity#com.marico.fsp.activity.FSPConfirmActivity
ADDED from C:\Users\tanush.lonkar\FSPv2.01\app\src\main\AndroidManifest.xml:75:9-78:55
	android:screenOrientation
		ADDED from C:\Users\tanush.lonkar\FSPv2.01\app\src\main\AndroidManifest.xml:77:13-49
	android:windowSoftInputMode
		ADDED from C:\Users\tanush.lonkar\FSPv2.01\app\src\main\AndroidManifest.xml:78:13-52
	android:name
		ADDED from C:\Users\tanush.lonkar\FSPv2.01\app\src\main\AndroidManifest.xml:76:13-70
activity#com.marico.fsp.activity.UserReportDetailActivity
ADDED from C:\Users\tanush.lonkar\FSPv2.01\app\src\main\AndroidManifest.xml:79:9-82:55
	android:screenOrientation
		ADDED from C:\Users\tanush.lonkar\FSPv2.01\app\src\main\AndroidManifest.xml:81:13-49
	android:windowSoftInputMode
		ADDED from C:\Users\tanush.lonkar\FSPv2.01\app\src\main\AndroidManifest.xml:82:13-52
	android:name
		ADDED from C:\Users\tanush.lonkar\FSPv2.01\app\src\main\AndroidManifest.xml:80:13-76
activity#com.marico.fsp.activity.UserReportInfoAtivity
ADDED from C:\Users\tanush.lonkar\FSPv2.01\app\src\main\AndroidManifest.xml:83:9-85:52
	android:screenOrientation
		ADDED from C:\Users\tanush.lonkar\FSPv2.01\app\src\main\AndroidManifest.xml:85:13-49
	android:name
		ADDED from C:\Users\tanush.lonkar\FSPv2.01\app\src\main\AndroidManifest.xml:84:13-73
activity#com.marico.fsp.adminactivity.AdminReportMenuActivity
ADDED from C:\Users\tanush.lonkar\FSPv2.01\app\src\main\AndroidManifest.xml:86:9-88:52
	android:screenOrientation
		ADDED from C:\Users\tanush.lonkar\FSPv2.01\app\src\main\AndroidManifest.xml:88:13-49
	android:name
		ADDED from C:\Users\tanush.lonkar\FSPv2.01\app\src\main\AndroidManifest.xml:87:13-80
activity#com.marico.fsp.adminactivity.AdminReportMnMbBnActivity
ADDED from C:\Users\tanush.lonkar\FSPv2.01\app\src\main\AndroidManifest.xml:89:9-91:52
	android:screenOrientation
		ADDED from C:\Users\tanush.lonkar\FSPv2.01\app\src\main\AndroidManifest.xml:91:13-49
	android:name
		ADDED from C:\Users\tanush.lonkar\FSPv2.01\app\src\main\AndroidManifest.xml:90:13-82
activity#com.marico.fsp.adminactivity.AdminReportMbLbActivity
ADDED from C:\Users\tanush.lonkar\FSPv2.01\app\src\main\AndroidManifest.xml:92:9-94:52
	android:screenOrientation
		ADDED from C:\Users\tanush.lonkar\FSPv2.01\app\src\main\AndroidManifest.xml:94:13-49
	android:name
		ADDED from C:\Users\tanush.lonkar\FSPv2.01\app\src\main\AndroidManifest.xml:93:13-80
activity#com.marico.fsp.adminactivity.AdminReportNsActivity
ADDED from C:\Users\tanush.lonkar\FSPv2.01\app\src\main\AndroidManifest.xml:95:9-97:52
	android:screenOrientation
		ADDED from C:\Users\tanush.lonkar\FSPv2.01\app\src\main\AndroidManifest.xml:97:13-49
	android:name
		ADDED from C:\Users\tanush.lonkar\FSPv2.01\app\src\main\AndroidManifest.xml:96:13-78
activity#com.marico.fsp.adminactivity.AdminReportProductivityActivity
ADDED from C:\Users\tanush.lonkar\FSPv2.01\app\src\main\AndroidManifest.xml:98:9-100:52
	android:screenOrientation
		ADDED from C:\Users\tanush.lonkar\FSPv2.01\app\src\main\AndroidManifest.xml:100:13-49
	android:name
		ADDED from C:\Users\tanush.lonkar\FSPv2.01\app\src\main\AndroidManifest.xml:99:13-88
activity#com.marico.fsp.adminactivity.AdminRouteDownloadActivity
ADDED from C:\Users\tanush.lonkar\FSPv2.01\app\src\main\AndroidManifest.xml:101:9-104:20
	android:screenOrientation
		ADDED from C:\Users\tanush.lonkar\FSPv2.01\app\src\main\AndroidManifest.xml:103:13-49
	android:name
		ADDED from C:\Users\tanush.lonkar\FSPv2.01\app\src\main\AndroidManifest.xml:102:13-83
activity#com.marico.fsp.adminactivity.AdminDownloadActivity
ADDED from C:\Users\tanush.lonkar\FSPv2.01\app\src\main\AndroidManifest.xml:105:9-108:20
	android:screenOrientation
		ADDED from C:\Users\tanush.lonkar\FSPv2.01\app\src\main\AndroidManifest.xml:107:13-49
	android:name
		ADDED from C:\Users\tanush.lonkar\FSPv2.01\app\src\main\AndroidManifest.xml:106:13-78
activity#com.marico.fsp.adminactivity.AdminUserSelectionActivity
ADDED from C:\Users\tanush.lonkar\FSPv2.01\app\src\main\AndroidManifest.xml:109:9-112:20
	android:screenOrientation
		ADDED from C:\Users\tanush.lonkar\FSPv2.01\app\src\main\AndroidManifest.xml:111:13-49
	android:name
		ADDED from C:\Users\tanush.lonkar\FSPv2.01\app\src\main\AndroidManifest.xml:110:13-83
activity#com.marico.fsp.activity.KilometerActivity
ADDED from C:\Users\tanush.lonkar\FSPv2.01\app\src\main\AndroidManifest.xml:113:9-115:52
	android:screenOrientation
		ADDED from C:\Users\tanush.lonkar\FSPv2.01\app\src\main\AndroidManifest.xml:115:13-49
	android:name
		ADDED from C:\Users\tanush.lonkar\FSPv2.01\app\src\main\AndroidManifest.xml:114:13-69
activity#com.marico.fsp.activity.OpeningActivity
ADDED from C:\Users\tanush.lonkar\FSPv2.01\app\src\main\AndroidManifest.xml:116:9-120:20
	android:screenOrientation
		ADDED from C:\Users\tanush.lonkar\FSPv2.01\app\src\main\AndroidManifest.xml:118:13-49
	android:windowSoftInputMode
		ADDED from C:\Users\tanush.lonkar\FSPv2.01\app\src\main\AndroidManifest.xml:119:13-52
	android:name
		ADDED from C:\Users\tanush.lonkar\FSPv2.01\app\src\main\AndroidManifest.xml:117:13-67
activity#com.marico.fsp.activity.TrackingActivity
ADDED from C:\Users\tanush.lonkar\FSPv2.01\app\src\main\AndroidManifest.xml:121:9-124:20
	android:screenOrientation
		ADDED from C:\Users\tanush.lonkar\FSPv2.01\app\src\main\AndroidManifest.xml:123:13-49
	android:name
		ADDED from C:\Users\tanush.lonkar\FSPv2.01\app\src\main\AndroidManifest.xml:122:13-68
activity#com.marico.fsp.activity.NutsTrackingActivity
ADDED from C:\Users\tanush.lonkar\FSPv2.01\app\src\main\AndroidManifest.xml:125:9-129:20
	android:screenOrientation
		ADDED from C:\Users\tanush.lonkar\FSPv2.01\app\src\main\AndroidManifest.xml:127:13-49
	android:windowSoftInputMode
		ADDED from C:\Users\tanush.lonkar\FSPv2.01\app\src\main\AndroidManifest.xml:128:13-52
	android:name
		ADDED from C:\Users\tanush.lonkar\FSPv2.01\app\src\main\AndroidManifest.xml:126:13-72
activity#com.marico.fsp.activity.OilTrackingActivity
ADDED from C:\Users\tanush.lonkar\FSPv2.01\app\src\main\AndroidManifest.xml:130:9-134:20
	android:screenOrientation
		ADDED from C:\Users\tanush.lonkar\FSPv2.01\app\src\main\AndroidManifest.xml:132:13-49
	android:windowSoftInputMode
		ADDED from C:\Users\tanush.lonkar\FSPv2.01\app\src\main\AndroidManifest.xml:133:13-52
	android:name
		ADDED from C:\Users\tanush.lonkar\FSPv2.01\app\src\main\AndroidManifest.xml:131:13-71
activity#com.marico.fsp.adminactivity.ReportProductivityActivity
ADDED from C:\Users\tanush.lonkar\FSPv2.01\app\src\main\AndroidManifest.xml:135:9-138:55
	android:screenOrientation
		ADDED from C:\Users\tanush.lonkar\FSPv2.01\app\src\main\AndroidManifest.xml:137:13-49
	android:windowSoftInputMode
		ADDED from C:\Users\tanush.lonkar\FSPv2.01\app\src\main\AndroidManifest.xml:138:13-52
	android:name
		ADDED from C:\Users\tanush.lonkar\FSPv2.01\app\src\main\AndroidManifest.xml:136:13-83
activity#com.marico.fsp.A_Activity
ADDED from C:\Users\tanush.lonkar\FSPv2.01\app\src\main\AndroidManifest.xml:139:9-142:20
	android:label
		ADDED from C:\Users\tanush.lonkar\FSPv2.01\app\src\main\AndroidManifest.xml:141:13-54
	android:name
		ADDED from C:\Users\tanush.lonkar\FSPv2.01\app\src\main\AndroidManifest.xml:140:13-53
activity#com.marico.fsp.adminactivity.AdminReportMbMnLbBnActivity
ADDED from C:\Users\tanush.lonkar\FSPv2.01\app\src\main\AndroidManifest.xml:143:9-146:20
	android:label
		ADDED from C:\Users\tanush.lonkar\FSPv2.01\app\src\main\AndroidManifest.xml:145:13-54
	android:name
		ADDED from C:\Users\tanush.lonkar\FSPv2.01\app\src\main\AndroidManifest.xml:144:13-84
uses-library#org.apache.http.legacy
ADDED from C:\Users\tanush.lonkar\FSPv2.01\app\src\main\AndroidManifest.xml:148:9-88
	android:required
		ADDED from C:\Users\tanush.lonkar\FSPv2.01\app\src\main\AndroidManifest.xml:148:61-85
	android:name
		ADDED from C:\Users\tanush.lonkar\FSPv2.01\app\src\main\AndroidManifest.xml:148:23-60
uses-sdk
INJECTED from C:\Users\tanush.lonkar\FSPv2.01\app\src\main\AndroidManifest.xml reason: use-sdk injection requested
INJECTED from C:\Users\tanush.lonkar\FSPv2.01\app\src\main\AndroidManifest.xml
INJECTED from C:\Users\tanush.lonkar\FSPv2.01\app\src\main\AndroidManifest.xml
MERGED from [androidx.appcompat:appcompat:1.0.0] C:\Users\tanush.lonkar\.gradle\caches\transforms-2\files-2.1\2c6c92180058c66e00493c649cc15d98\appcompat-1.0.0\AndroidManifest.xml:20:5-44
MERGED from [androidx.appcompat:appcompat:1.0.0] C:\Users\tanush.lonkar\.gradle\caches\transforms-2\files-2.1\2c6c92180058c66e00493c649cc15d98\appcompat-1.0.0\AndroidManifest.xml:20:5-44
MERGED from [androidx.fragment:fragment:1.0.0] C:\Users\tanush.lonkar\.gradle\caches\transforms-2\files-2.1\25bfa9abbe57efa7109f3ed8175af34b\fragment-1.0.0\AndroidManifest.xml:20:5-44
MERGED from [androidx.fragment:fragment:1.0.0] C:\Users\tanush.lonkar\.gradle\caches\transforms-2\files-2.1\25bfa9abbe57efa7109f3ed8175af34b\fragment-1.0.0\AndroidManifest.xml:20:5-44
MERGED from [androidx.vectordrawable:vectordrawable-animated:1.0.0] C:\Users\tanush.lonkar\.gradle\caches\transforms-2\files-2.1\91a2e0650e476867729e44e6c1acc534\vectordrawable-animated-1.0.0\AndroidManifest.xml:20:5-44
MERGED from [androidx.vectordrawable:vectordrawable-animated:1.0.0] C:\Users\tanush.lonkar\.gradle\caches\transforms-2\files-2.1\91a2e0650e476867729e44e6c1acc534\vectordrawable-animated-1.0.0\AndroidManifest.xml:20:5-44
MERGED from [androidx.legacy:legacy-support-core-ui:1.0.0] C:\Users\tanush.lonkar\.gradle\caches\transforms-2\files-2.1\67e3a22614326cadf216274f01d6d423\legacy-support-core-ui-1.0.0\AndroidManifest.xml:20:5-44
MERGED from [androidx.legacy:legacy-support-core-ui:1.0.0] C:\Users\tanush.lonkar\.gradle\caches\transforms-2\files-2.1\67e3a22614326cadf216274f01d6d423\legacy-support-core-ui-1.0.0\AndroidManifest.xml:20:5-44
MERGED from [androidx.legacy:legacy-support-core-utils:1.0.0] C:\Users\tanush.lonkar\.gradle\caches\transforms-2\files-2.1\984e9edaa0792ad5f44429be517dd8ee\legacy-support-core-utils-1.0.0\AndroidManifest.xml:20:5-44
MERGED from [androidx.legacy:legacy-support-core-utils:1.0.0] C:\Users\tanush.lonkar\.gradle\caches\transforms-2\files-2.1\984e9edaa0792ad5f44429be517dd8ee\legacy-support-core-utils-1.0.0\AndroidManifest.xml:20:5-44
MERGED from [androidx.vectordrawable:vectordrawable:1.0.0] C:\Users\tanush.lonkar\.gradle\caches\transforms-2\files-2.1\e9a5a586c1d50b6fc9a947704548d1bc\vectordrawable-1.0.0\AndroidManifest.xml:20:5-44
MERGED from [androidx.vectordrawable:vectordrawable:1.0.0] C:\Users\tanush.lonkar\.gradle\caches\transforms-2\files-2.1\e9a5a586c1d50b6fc9a947704548d1bc\vectordrawable-1.0.0\AndroidManifest.xml:20:5-44
MERGED from [androidx.loader:loader:1.0.0] C:\Users\tanush.lonkar\.gradle\caches\transforms-2\files-2.1\de3b4aff63e255359d6d83ac6fbdaff5\loader-1.0.0\AndroidManifest.xml:20:5-44
MERGED from [androidx.loader:loader:1.0.0] C:\Users\tanush.lonkar\.gradle\caches\transforms-2\files-2.1\de3b4aff63e255359d6d83ac6fbdaff5\loader-1.0.0\AndroidManifest.xml:20:5-44
MERGED from [androidx.viewpager:viewpager:1.0.0] C:\Users\tanush.lonkar\.gradle\caches\transforms-2\files-2.1\7ae8c1d65b7331eeb350edf91287a16c\viewpager-1.0.0\AndroidManifest.xml:20:5-44
MERGED from [androidx.viewpager:viewpager:1.0.0] C:\Users\tanush.lonkar\.gradle\caches\transforms-2\files-2.1\7ae8c1d65b7331eeb350edf91287a16c\viewpager-1.0.0\AndroidManifest.xml:20:5-44
MERGED from [androidx.coordinatorlayout:coordinatorlayout:1.0.0] C:\Users\tanush.lonkar\.gradle\caches\transforms-2\files-2.1\cbfe81a657ef2afb513a6ca64388f844\coordinatorlayout-1.0.0\AndroidManifest.xml:20:5-44
MERGED from [androidx.coordinatorlayout:coordinatorlayout:1.0.0] C:\Users\tanush.lonkar\.gradle\caches\transforms-2\files-2.1\cbfe81a657ef2afb513a6ca64388f844\coordinatorlayout-1.0.0\AndroidManifest.xml:20:5-44
MERGED from [androidx.drawerlayout:drawerlayout:1.0.0] C:\Users\tanush.lonkar\.gradle\caches\transforms-2\files-2.1\3d66247cb3e229dc7753f5f4d3b35b4b\drawerlayout-1.0.0\AndroidManifest.xml:20:5-44
MERGED from [androidx.drawerlayout:drawerlayout:1.0.0] C:\Users\tanush.lonkar\.gradle\caches\transforms-2\files-2.1\3d66247cb3e229dc7753f5f4d3b35b4b\drawerlayout-1.0.0\AndroidManifest.xml:20:5-44
MERGED from [androidx.slidingpanelayout:slidingpanelayout:1.0.0] C:\Users\tanush.lonkar\.gradle\caches\transforms-2\files-2.1\985ff358bb91108c25d3fd24361b35b6\slidingpanelayout-1.0.0\AndroidManifest.xml:20:5-44
MERGED from [androidx.slidingpanelayout:slidingpanelayout:1.0.0] C:\Users\tanush.lonkar\.gradle\caches\transforms-2\files-2.1\985ff358bb91108c25d3fd24361b35b6\slidingpanelayout-1.0.0\AndroidManifest.xml:20:5-44
MERGED from [androidx.customview:customview:1.0.0] C:\Users\tanush.lonkar\.gradle\caches\transforms-2\files-2.1\2dfde23a071269bfc073d57af77f7873\customview-1.0.0\AndroidManifest.xml:20:5-44
MERGED from [androidx.customview:customview:1.0.0] C:\Users\tanush.lonkar\.gradle\caches\transforms-2\files-2.1\2dfde23a071269bfc073d57af77f7873\customview-1.0.0\AndroidManifest.xml:20:5-44
MERGED from [androidx.swiperefreshlayout:swiperefreshlayout:1.0.0] C:\Users\tanush.lonkar\.gradle\caches\transforms-2\files-2.1\9b9140e118d7f4f83e504277c0661cb2\swiperefreshlayout-1.0.0\AndroidManifest.xml:20:5-44
MERGED from [androidx.swiperefreshlayout:swiperefreshlayout:1.0.0] C:\Users\tanush.lonkar\.gradle\caches\transforms-2\files-2.1\9b9140e118d7f4f83e504277c0661cb2\swiperefreshlayout-1.0.0\AndroidManifest.xml:20:5-44
MERGED from [androidx.asynclayoutinflater:asynclayoutinflater:1.0.0] C:\Users\tanush.lonkar\.gradle\caches\transforms-2\files-2.1\7b3b7b721ad53547c0e35001526b3ae3\asynclayoutinflater-1.0.0\AndroidManifest.xml:20:5-44
MERGED from [androidx.asynclayoutinflater:asynclayoutinflater:1.0.0] C:\Users\tanush.lonkar\.gradle\caches\transforms-2\files-2.1\7b3b7b721ad53547c0e35001526b3ae3\asynclayoutinflater-1.0.0\AndroidManifest.xml:20:5-44
MERGED from [androidx.core:core:1.0.0] C:\Users\tanush.lonkar\.gradle\caches\transforms-2\files-2.1\4de34232979cbe134bd28b81339a3afe\core-1.0.0\AndroidManifest.xml:20:5-44
MERGED from [androidx.core:core:1.0.0] C:\Users\tanush.lonkar\.gradle\caches\transforms-2\files-2.1\4de34232979cbe134bd28b81339a3afe\core-1.0.0\AndroidManifest.xml:20:5-44
MERGED from [androidx.versionedparcelable:versionedparcelable:1.0.0] C:\Users\tanush.lonkar\.gradle\caches\transforms-2\files-2.1\144fdb6eac090fb35b1d84279c68b489\versionedparcelable-1.0.0\AndroidManifest.xml:20:5-44
MERGED from [androidx.versionedparcelable:versionedparcelable:1.0.0] C:\Users\tanush.lonkar\.gradle\caches\transforms-2\files-2.1\144fdb6eac090fb35b1d84279c68b489\versionedparcelable-1.0.0\AndroidManifest.xml:20:5-44
MERGED from [androidx.cursoradapter:cursoradapter:1.0.0] C:\Users\tanush.lonkar\.gradle\caches\transforms-2\files-2.1\fb37b7f790edcc9d7fe6d3e5314b8c56\cursoradapter-1.0.0\AndroidManifest.xml:20:5-44
MERGED from [androidx.cursoradapter:cursoradapter:1.0.0] C:\Users\tanush.lonkar\.gradle\caches\transforms-2\files-2.1\fb37b7f790edcc9d7fe6d3e5314b8c56\cursoradapter-1.0.0\AndroidManifest.xml:20:5-44
MERGED from [androidx.lifecycle:lifecycle-runtime:2.0.0] C:\Users\tanush.lonkar\.gradle\caches\transforms-2\files-2.1\9403b198b8afe4b102d07c4886ca21c9\lifecycle-runtime-2.0.0\AndroidManifest.xml:20:5-44
MERGED from [androidx.lifecycle:lifecycle-runtime:2.0.0] C:\Users\tanush.lonkar\.gradle\caches\transforms-2\files-2.1\9403b198b8afe4b102d07c4886ca21c9\lifecycle-runtime-2.0.0\AndroidManifest.xml:20:5-44
MERGED from [androidx.documentfile:documentfile:1.0.0] C:\Users\tanush.lonkar\.gradle\caches\transforms-2\files-2.1\8506ddbc1ed30380944ad7f0369e4760\documentfile-1.0.0\AndroidManifest.xml:20:5-44
MERGED from [androidx.documentfile:documentfile:1.0.0] C:\Users\tanush.lonkar\.gradle\caches\transforms-2\files-2.1\8506ddbc1ed30380944ad7f0369e4760\documentfile-1.0.0\AndroidManifest.xml:20:5-44
MERGED from [androidx.localbroadcastmanager:localbroadcastmanager:1.0.0] C:\Users\tanush.lonkar\.gradle\caches\transforms-2\files-2.1\35d6382087ac1999db47004e3bf24934\localbroadcastmanager-1.0.0\AndroidManifest.xml:20:5-44
MERGED from [androidx.localbroadcastmanager:localbroadcastmanager:1.0.0] C:\Users\tanush.lonkar\.gradle\caches\transforms-2\files-2.1\35d6382087ac1999db47004e3bf24934\localbroadcastmanager-1.0.0\AndroidManifest.xml:20:5-44
MERGED from [androidx.print:print:1.0.0] C:\Users\tanush.lonkar\.gradle\caches\transforms-2\files-2.1\8893b90c6f2a61edd1acfa898cb4cde1\print-1.0.0\AndroidManifest.xml:20:5-44
MERGED from [androidx.print:print:1.0.0] C:\Users\tanush.lonkar\.gradle\caches\transforms-2\files-2.1\8893b90c6f2a61edd1acfa898cb4cde1\print-1.0.0\AndroidManifest.xml:20:5-44
MERGED from [androidx.lifecycle:lifecycle-viewmodel:2.0.0] C:\Users\tanush.lonkar\.gradle\caches\transforms-2\files-2.1\072b344381f0227679ab9ff288809b6a\lifecycle-viewmodel-2.0.0\AndroidManifest.xml:20:5-44
MERGED from [androidx.lifecycle:lifecycle-viewmodel:2.0.0] C:\Users\tanush.lonkar\.gradle\caches\transforms-2\files-2.1\072b344381f0227679ab9ff288809b6a\lifecycle-viewmodel-2.0.0\AndroidManifest.xml:20:5-44
MERGED from [androidx.lifecycle:lifecycle-livedata:2.0.0] C:\Users\tanush.lonkar\.gradle\caches\transforms-2\files-2.1\e7284bace20bec096294b5474e153fbf\lifecycle-livedata-2.0.0\AndroidManifest.xml:20:5-44
MERGED from [androidx.lifecycle:lifecycle-livedata:2.0.0] C:\Users\tanush.lonkar\.gradle\caches\transforms-2\files-2.1\e7284bace20bec096294b5474e153fbf\lifecycle-livedata-2.0.0\AndroidManifest.xml:20:5-44
MERGED from [androidx.lifecycle:lifecycle-livedata-core:2.0.0] C:\Users\tanush.lonkar\.gradle\caches\transforms-2\files-2.1\c073c929da6ad4e112abaac7d3212747\lifecycle-livedata-core-2.0.0\AndroidManifest.xml:20:5-44
MERGED from [androidx.lifecycle:lifecycle-livedata-core:2.0.0] C:\Users\tanush.lonkar\.gradle\caches\transforms-2\files-2.1\c073c929da6ad4e112abaac7d3212747\lifecycle-livedata-core-2.0.0\AndroidManifest.xml:20:5-44
MERGED from [androidx.arch.core:core-runtime:2.0.0] C:\Users\tanush.lonkar\.gradle\caches\transforms-2\files-2.1\e72949b043b8df7a6068dab5e7cd21f2\core-runtime-2.0.0\AndroidManifest.xml:20:5-44
MERGED from [androidx.arch.core:core-runtime:2.0.0] C:\Users\tanush.lonkar\.gradle\caches\transforms-2\files-2.1\e72949b043b8df7a6068dab5e7cd21f2\core-runtime-2.0.0\AndroidManifest.xml:20:5-44
MERGED from [androidx.interpolator:interpolator:1.0.0] C:\Users\tanush.lonkar\.gradle\caches\transforms-2\files-2.1\2d1f640c1b4beb33089ff5c91bbd7f31\interpolator-1.0.0\AndroidManifest.xml:20:5-44
MERGED from [androidx.interpolator:interpolator:1.0.0] C:\Users\tanush.lonkar\.gradle\caches\transforms-2\files-2.1\2d1f640c1b4beb33089ff5c91bbd7f31\interpolator-1.0.0\AndroidManifest.xml:20:5-44
INJECTED from C:\Users\tanush.lonkar\FSPv2.01\app\src\main\AndroidManifest.xml
INJECTED from C:\Users\tanush.lonkar\FSPv2.01\app\src\main\AndroidManifest.xml
	android:targetSdkVersion
		INJECTED from C:\Users\tanush.lonkar\FSPv2.01\app\src\main\AndroidManifest.xml
		ADDED from C:\Users\tanush.lonkar\FSPv2.01\app\src\main\AndroidManifest.xml
		INJECTED from C:\Users\tanush.lonkar\FSPv2.01\app\src\main\AndroidManifest.xml
	android:minSdkVersion
		INJECTED from C:\Users\tanush.lonkar\FSPv2.01\app\src\main\AndroidManifest.xml
		ADDED from C:\Users\tanush.lonkar\FSPv2.01\app\src\main\AndroidManifest.xml
		INJECTED from C:\Users\tanush.lonkar\FSPv2.01\app\src\main\AndroidManifest.xml
